import java.util.*;
public class EvenOddJava  {
    public static void main(String[] args) {
        int n;
        Scanner input=new Scanner(System.in);
        System.out.println("Enter number:");
        n=input.nextInt();
        if(n%2==0){
            System.out.println( n +"is even");
        }
        else{
            System.out.println(n + "is Odd");
        }
    }
    
    
}
